{
  "car_or_truck": {
    "code": "car_or_truck",
    "label": "Car or Sedan",
    "tooltip": "Sedans, small cars and station wagons.",
    "insurance_required": true,
    "insurance_disabled": false,
    "year_required": true
  },
  "smallsuv": {
    "code": "smallsuv",
    "label": "Small SUV or Truck",
    "tooltip": "Most small SUVs, most small pickups.",
    "insurance_required": true,
    "insurance_disabled": false,
    "year_required": true
  },
  "largesuv": {
    "code": "largesuv",
    "label": "Large SUV or Truck",
    "tooltip": "All minivans, \"compact\" SUVs (e.g., Ford Explorer), most Dakota and T100 pickups.",
    "insurance_required": true,
    "insurance_disabled": false,
    "year_required": true
  },
  "motorcycle": {
    "code": "motorcycle",
    "label": "Motorcycle",
    "tooltip": "Any vehicle with less than four wheels.",
    "insurance_required": false,
    "insurance_disabled": false,
    "year_required": true
  },
  "boat/vessel": {
    "code": "boat/vessel",
    "label": "Boat or Vessel",
    "tooltip": "A boat is a watercraft of a large range of types and sizes.",
    "insurance_required": false,
    "insurance_disabled": false,
    "year_required": false
  },
  "trailer": {
    "code": "trailer",
    "label": "Trailer",
    "tooltip": "A trailer is a wheeled vehicle that can't move on its own — it needs to be pulled by a car, truck, or other vehicle.",
    "insurance_required": false,
    "insurance_disabled": false,
    "year_required": false
  },
  "rv/motorhome": {
    "code": "rv/motorhome",
    "label": "RV or Motorhome",
    "tooltip": "A recreational vehicle, often abbreviated as RV, is a motor vehicle or trailer which includes living quarters designed for accommodation.",
    "insurance_required": true,
    "insurance_disabled": false,
    "year_required": false
  }
}
